hw/fpga/output_files/firsttry.vcd
$comment
Copyright (C) 2018  Intel Corporation. All rights reserved.
Your use of Intel Corporation's design tools, logic functions 
and other software and tools, and its AMPP partner logic 
functions, and any output files from any of the foregoing 
(including device programming or simulation files), and any 
associated documentation or information are expressly subject 
to the terms and conditions of the Intel Program License 
Subscription Agreement, the Intel Quartus Prime License Agreement,
the Intel FPGA IP License Agreement, or other applicable license
agreement, including, without limitation, that your use is for
the sole purpose of programming logic devices manufactured by
Intel and sold by Intel or its authorized distributors.  Please
refer to the applicable agreement for further details.
$end

$date 
  03/11/2022 21:56:08 
$end
$version 
 QUARTUS_VCD_EXPORT 1.0 
$end
$timescale
  1 ps
$end
$scope module cpu_clk $end
$scope module altpll_component $end
$scope module auto_generated $end
$var reg 1 ! \wire_pll1_clk[0]~clkctrl  $end
$upscope $end
$upscope $end
$upscope $end
$var reg 1 " cpu_addr[15] $end
$var reg 1 # cpu_addr[14] $end
$var reg 1 $ cpu_addr[13] $end
$var reg 1 % cpu_addr[12] $end
$var reg 1 & cpu_addr[11] $end
$var reg 1 ' cpu_addr[10] $end
$var reg 1 ( cpu_addr[9] $end
$var reg 1 ) cpu_addr[8] $end
$var reg 1 * cpu_addr[7] $end
$var reg 1 + cpu_addr[6] $end
$var reg 1 , cpu_addr[5] $end
$var reg 1 - cpu_addr[4] $end
$var reg 1 . cpu_addr[3] $end
$var reg 1 / cpu_addr[2] $end
$var reg 1 0 cpu_addr[1] $end
$var reg 1 1 cpu_addr[0] $end
$var reg 1 2 cpu_data_in[7] $end
$var reg 1 3 cpu_data_in[6] $end
$var reg 1 4 cpu_data_in[5] $end
$var reg 1 5 cpu_data_in[4] $end
$var reg 1 6 cpu_data_in[3] $end
$var reg 1 7 cpu_data_in[2] $end
$var reg 1 8 cpu_data_in[1] $end
$var reg 1 9 cpu_data_in[0] $end
$var reg 1 : cpu_data_out[7] $end
$var reg 1 ; cpu_data_out[6] $end
$var reg 1 < cpu_data_out[5] $end
$var reg 1 = cpu_data_out[4] $end
$var reg 1 > cpu_data_out[3] $end
$var reg 1 ? cpu_data_out[2] $end
$var reg 1 @ cpu_data_out[1] $end
$var reg 1 A cpu_data_out[0] $end
$var reg 1 B cpu_rwb $end
$var reg 1 C cpu_sync $end
$var reg 1 D rst_n $end
$var reg 1 E cpu_vpb $end
$var reg 1 F cpu_phi2 $end
$enddefinitions $end
#0
$dumpvars
0!
X"
X#
X$
X%
X&
X'
X(
X)
X*
X+
X,
X-
X.
X/
X0
X1
X2
X3
X4
X5
X6
X7
X8
X9
X:
X;
X<
X=
X>
X?
X@
XA
XB
XC
XD
XE
XF
$end
#500000000000
$comment Sample -128 (Start) $end
1!
1"
0#
0$
0%
0&
0'
0(
0)
0*
0+
0,
0-
0.
0/
10
11
02
13
04
05
16
17
08
09
0:
1;
0<
0=
1>
1?
0@
0A
1B
0C
0D
1E
1F
#1000000000000
0!
#1500000000000
1!
0F
#2000000000000
0!
#2500000000000
1!
1F
#3000000000000
0!
#3500000000000
1!
0F
#4000000000000
0!
#4500000000000
1!
1F
#5000000000000
0!
#5500000000000
1!
0F
#6000000000000
0!
#6500000000000
1!
1F
#7000000000000
0!
#7500000000000
1!
0F
#8000000000000
0!
#8500000000000
1!
1F
#9000000000000
0!
#9500000000000
1!
0F
#10000000000000
0!
#10500000000000
1!
1F
#11000000000000
0!
#11500000000000
1!
0F
#12000000000000
0!
#12500000000000
1!
1F
#13000000000000
0!
#13500000000000
1!
0F
#14000000000000
0!
#14500000000000
1!
1F
#15000000000000
0!
#15500000000000
1!
0F
#16000000000000
0!
#16500000000000
1!
1F
#17000000000000
0!
#17500000000000
1!
0F
#18000000000000
0!
#18500000000000
1!
1F
#19000000000000
0!
#19500000000000
1!
0F
#20000000000000
0!
#20500000000000
1!
1F
#21000000000000
0!
#21500000000000
1!
0F
#22000000000000
0!
#22500000000000
1!
1F
#23000000000000
0!
#23500000000000
1!
0F
#24000000000000
0!
#24500000000000
1!
1F
#25000000000000
0!
#25500000000000
1!
0F
#26000000000000
0!
#26500000000000
1!
1F
#27000000000000
0!
#27500000000000
1!
0F
#28000000000000
0!
#28500000000000
1!
1F
#29000000000000
0!
#29500000000000
1!
0F
#30000000000000
0!
#30500000000000
1!
1F
#31000000000000
0!
#31500000000000
1!
0F
#32000000000000
0!
#32500000000000
1!
1F
#33000000000000
0!
#33500000000000
1!
0F
#34000000000000
0!
#34500000000000
1!
1F
#35000000000000
0!
#35500000000000
1!
0F
#36000000000000
0!
#36500000000000
1!
1F
#37000000000000
0!
#37500000000000
1!
0F
#38000000000000
0!
#38500000000000
1!
1F
#39000000000000
0!
#39500000000000
1!
0F
#40000000000000
0!
#40500000000000
1!
1F
#41000000000000
0!
#41500000000000
1!
0F
#42000000000000
0!
#42500000000000
1!
1F
#43000000000000
0!
#43500000000000
1!
0F
#44000000000000
0!
#44500000000000
1!
1F
#45000000000000
0!
#45500000000000
1!
0F
#46000000000000
0!
#46500000000000
1!
1F
#47000000000000
0!
#47500000000000
1!
1D
0F
#48000000000000
0!
#48500000000000
1!
1F
#49000000000000
0!
#49500000000000
1!
0F
#50000000000000
0!
#50500000000000
1!
1F
#51000000000000
0!
#51500000000000
1!
1#
1$
1%
1&
1'
1(
1)
1*
1+
1,
1-
1.
1/
1C
0F
#52000000000000
0!
#52500000000000
1!
12
03
06
07
1:
0;
0>
0?
1F
#53000000000000
0!
#53500000000000
1!
0#
0$
0%
0&
0'
0(
0)
0*
0+
0,
0-
0.
00
01
0C
0F
#54000000000000
0!
#54500000000000
1!
02
18
19
0:
1@
1A
1F
#55000000000000
0!
#55500000000000
1!
0"
1)
1*
1+
1-
0/
10
11
08
09
0@
0A
0F
#56000000000000
0!
#56500000000000
1!
12
1:
1F
#57000000000000
0!
#57500000000000
1!
01
0F
#58000000000000
0!
#58500000000000
1!
02
18
0:
1@
1F
#59000000000000
0!
#59500000000000
1!
00
11
0F
#60000000000000
0!
#60500000000000
1!
12
08
1:
0@
1F
#61000000000000
0!
#61500000000000
1!
1"
1#
1$
1%
1&
1'
1(
1,
1.
1/
01
13
14
15
16
17
18
19
1;
1<
1=
1>
1?
1@
1A
0E
0F
#62000000000000
0!
#62500000000000
1!
02
03
04
05
06
07
08
09
0:
0;
0<
0=
0>
0?
0@
0A
1F
#63000000000000
0!
#63500000000000
1!
11
0F
#64000000000000
0!
#64500000000000
1!
12
1:
1F
#65000000000000
0!
#65500000000000
1!
0#
0$
0%
0&
0'
0(
0)
0*
0+
0,
0-
0.
0/
01
1C
1E
0F
#66000000000000
0!
#66500000000000
1!
02
14
0:
1<
1F
#67000000000000
0!
#67500000000000
1!
11
0C
0F
#68000000000000
0!
#68500000000000
1!
04
17
18
0<
1?
1@
1F
#69000000000000
0!
#69500000000000
1!
0"
1)
1*
1+
1-
01
07
08
0?
0@
0F
#70000000000000
0!
#70500000000000
1!
14
16
17
1<
1>
1?
1F
#71000000000000
0!
#71500000000000
1!
0B
0F
#72000000000000
0!
#72500000000000
1!
12
04
06
07
1F
#73000000000000
0!
#73500000000000
1!
0-
1.
1/
10
11
1:
0<
0>
0?
0F
#74000000000000
0!
#74500000000000
1!
02
18
1F
#75000000000000
0!
#75500000000000
1!
1"
0)
0*
0+
0.
0/
01
12
13
14
15
16
17
19
1;
1<
1=
1>
1?
1@
1A
1B
0F
#76000000000000
0!
#76500000000000
1!
03
04
05
06
07
08
09
0;
0<
0=
0>
0?
0@
0A
1F
#77000000000000
0!
#77500000000000
1!
1/
1C
0F
#78000000000000
0!
#78500000000000
1!
02
14
0:
1<
1F
#79000000000000
0!
#79500000000000
1!
11
0C
0F
#80000000000000
0!
#80500000000000
1!
16
17
18
1>
1?
1@
1F
#81000000000000
0!
#81500000000000
1!
0"
1)
1*
1+
1.
01
04
06
07
08
0<
0>
0?
0@
0F
#82000000000000
0!
#82500000000000
1!
1F
#83000000000000
0!
#83500000000000
1!
0B
0F
#84000000000000
0!
#84500000000000
1!
12
1F
#85000000000000
0!
#85500000000000
1!
00
11
1:
0F
#86000000000000
0!
#86500000000000
1!
02
16
1F
#87000000000000
0!
#87500000000000
1!
1"
0)
0*
0+
0/
01
12
13
14
15
17
18
19
1;
1<
1=
1>
1?
1@
1A
1B
0F
#88000000000000
0!
#88500000000000
1!
03
04
05
06
07
08
09
0;
0<
0=
0>
0?
0@
0A
1F
#89000000000000
0!
#89500000000000
1!
1,
1/
10
1C
0F
#90000000000000
0!
#90500000000000
1!
14
17
19
1<
1?
1A
1F
#91000000000000
0!
#91500000000000
1!
11
0C
0F
#92000000000000
0!
#92500000000000
1!
02
04
07
09
0:
0<
0?
0A
1F
#93000000000000
0!
#93500000000000
1!
0"
0,
0.
0/
00
01
0F
#94000000000000
0!
#94500000000000
1!
1F
#95000000000000
0!
#95500000000000
1!
1"
1,
1-
14
1<
1C
0F
#96000000000000
0!
#96500000000000
1!
15
16
1=
1>
1F
#97000000000000
0!
#97500000000000
1!
11
0C
0F
#98000000000000
0!
#98500000000000
1!
12
13
05
19
1:
1;
0=
1A
1F
#99000000000000
0!
#99500000000000
1!
1C
0F
#100000000000000
0!
#100500000000000
1!
1F
#101000000000000
0!
#101500000000000
1!
10
01
0C
0F
#102000000000000
0!
#102500000000000
1!
02
03
04
06
18
09
0:
0;
0<
0>
1@
0A
1F
#103000000000000
0!
#103500000000000
1!
11
1C
0F
#104000000000000
0!
#104500000000000
1!
12
17
08
19
1:
1?
0@
1A
1F
#105000000000000
0!
#105500000000000
1!
1/
00
01
0C
0F
#106000000000000
0!
#106500000000000
1!
02
07
09
0:
0?
0A
1F
#107000000000000
0!
#107500000000000
1!
0"
0,
0-
0/
0B
0F
#108000000000000
0!
#108500000000000
1!
12
13
14
15
16
17
18
1F
#109000000000000
0!
#109500000000000
1!
1"
1,
1-
1/
11
02
03
05
06
07
08
1<
1B
1C
0F
#110000000000000
0!
#110500000000000
1!
12
04
15
1:
0<
1=
1F
#111000000000000
0!
#111500000000000
1!
10
01
0C
0F
#112000000000000
0!
#112500000000000
1!
02
05
19
0:
0=
1A
1F
#113000000000000
0!
#113500000000000
1!
11
0F
#114000000000000
0!
#114500000000000
1!
13
14
09
1;
1<
0A
1F
#115000000000000
0!
#115500000000000
1!
1.
0/
00
01
1C
0F
#116000000000000
0!
#116500000000000
1!
12
04
17
18
1:
0<
1?
1@
1F
#117000000000000
0!
#117500000000000
1!
11
0C
0F
#118000000000000
0!
#118500000000000
1!
02
03
07
08
19
0:
0;
0?
0@
1A
1F
#119000000000000
0!
#119500000000000
1!
0"
0,
0-
0.
09
0A
0F
#120000000000000
0!
#120500000000000
1!
1F
#121000000000000
0!
#121500000000000
1!
0F
#122000000000000
0!
#122500000000000
1!
1F
#123000000000000
0!
#123500000000000
1!
0B
0F
#124000000000000
0!
#124500000000000
1!
12
13
14
15
16
17
18
19
1F
#125000000000000
0!
#125500000000000
1!
1"
1,
1-
1.
10
01
02
03
04
05
06
09
1?
1@
1B
1C
0F
#126000000000000
0!
#126500000000000
1!
13
14
07
08
1;
1<
0?
0@
1F
#127000000000000
0!
#127500000000000
1!
11
0C
0F
#128000000000000
0!
#128500000000000
$comment Sample 0 (Trigger) $end
1!
12
03
1:
0;
1F
#129000000000000
0!
#129500000000000
1!
0"
1)
1*
1+
0,
0-
1/
00
01
02
04
0:
0<
0F
#130000000000000
0!
#130500000000000
1!
1F
#131000000000000
0!
#131500000000000
1!
11
0F
#132000000000000
0!
#132500000000000
1!
16
1>
1F
#133000000000000
0!
#133500000000000
1!
10
01
0F
#134000000000000
0!
#134500000000000
1!
12
06
1:
0>
1F
#135000000000000
0!
#135500000000000
1!
1"
0)
0*
0+
0/
00
13
14
15
16
17
18
19
1;
1<
1=
1>
1?
1@
1A
0F
#136000000000000
0!
#136500000000000
1!
03
04
05
06
07
08
09
0;
0<
0=
0>
0?
0@
0A
1F
#137000000000000
0!
#137500000000000
1!
11
1C
0F
#138000000000000
0!
#138500000000000
1!
14
18
1<
1@
1F
#139000000000000
0!
#139500000000000
1!
10
01
0C
0F
#140000000000000
0!
#140500000000000
1!
02
13
15
16
17
19
0:
1;
1=
1>
1?
1A
1F
#141000000000000
0!
#141500000000000
1!
11
1C
0F
#142000000000000
0!
#142500000000000
1!
12
03
05
07
08
1:
0;
0=
0?
0@
1F
#143000000000000
0!
#143500000000000
1!
1/
00
01
0C
0F
#144000000000000
0!
#144500000000000
1!
13
15
06
09
1;
1=
0>
0A
1F
#145000000000000
0!
#145500000000000
1!
11
1C
0F
#146000000000000
0!
#146500000000000
1!
03
05
0;
0=
1F
#147000000000000
0!
#147500000000000
1!
10
01
0C
0F
#148000000000000
0!
#148500000000000
1!
02
04
0:
0<
1F
#149000000000000
0!
#149500000000000
1!
11
1C
0F
#150000000000000
0!
#150500000000000
1!
14
1<
1F
#151000000000000
0!
#151500000000000
1!
1-
0.
0/
00
01
0C
0F
#152000000000000
0!
#152500000000000
1!
13
15
17
18
1;
1=
1?
1@
1F
#153000000000000
0!
#153500000000000
1!
0"
1)
1*
1+
0-
1.
1/
10
03
04
05
07
08
0;
0<
0=
0?
0@
0F
#154000000000000
0!
#154500000000000
1!
12
1:
1F
#155000000000000
0!
#155500000000000
1!
0B
0F
#156000000000000
0!
#156500000000000
1!
1F
#157000000000000
0!
#157500000000000
1!
00
11
0F
#158000000000000
0!
#158500000000000
1!
02
15
19
1F
#159000000000000
0!
#159500000000000
1!
1"
0)
0*
0+
1-
0.
0/
12
13
14
16
17
18
1;
1<
1=
1>
1?
1@
1A
1B
0F
#160000000000000
0!
#160500000000000
1!
03
04
05
06
07
08
09
0;
0<
0=
0>
0?
0@
0A
1F
#161000000000000
0!
#161500000000000
1!
1+
1,
1/
10
01
1C
0F
#162000000000000
0!
#162500000000000
1!
15
19
1=
1A
1F
#163000000000000
0!
#163500000000000
1!
11
0C
0F
#164000000000000
0!
#164500000000000
1!
02
05
09
0:
0=
0A
1F
#165000000000000
0!
#165500000000000
1!
0"
0+
0,
0-
0/
00
01
0F
#166000000000000
0!
#166500000000000
1!
12
13
14
15
16
17
18
1:
1;
1<
1=
1>
1?
1@
1F
#167000000000000
0!
#167500000000000
1!
11
0F
#168000000000000
0!
#168500000000000
1!
19
1A
1F
#169000000000000
0!
#169500000000000
1!
0F
#170000000000000
0!
#170500000000000
1!
1F
#171000000000000
0!
#171500000000000
1!
1"
1#
1$
1%
1&
1'
1(
1)
1*
1+
1,
1-
1.
1/
10
01
0:
0;
0<
0=
0>
0A
0B
0F
#172000000000000
0!
#172500000000000
1!
06
07
08
09
0?
0@
1F
#173000000000000
0!
#173500000000000
1!
0#
0$
0%
0&
0'
0(
0)
0*
0/
00
02
03
04
05
1B
1C
0F
#174000000000000
0!
#174500000000000
1!
12
13
16
1:
1;
1>
1F
#175000000000000
0!
#175500000000000
1!
11
0C
0F
#176000000000000
0!
#176500000000000
1!
02
0:
1F
#177000000000000
0!
#177500000000000
1!
1C
0F
#178000000000000
0!
#178500000000000
1!
1F
#179000000000000
0!
#179500000000000
1!
10
01
0C
0F
#180000000000000
0!
#180500000000000
1!
12
03
18
1:
0;
1@
1F
#181000000000000
0!
#181500000000000
1!
0"
1)
1*
0,
0-
1/
00
0:
0>
0@
0B
0F
#182000000000000
0!
#182500000000000
1!
13
14
15
06
08
1:
1>
1@
1F
#183000000000000
0!
#183500000000000
1!
1"
0)
0*
1,
1-
0/
10
16
17
18
19
1;
1<
1=
1?
1A
1B
1C
0F
#184000000000000
0!
#184500000000000
1!
03
04
05
07
09
0;
0<
0=
0?
0A
1F
#185000000000000
0!
#185500000000000
1!
11
0C
0F
#186000000000000
0!
#186500000000000
1!
15
06
08
19
1=
0>
0@
1A
1F
#187000000000000
0!
#187500000000000
1!
1C
0F
#188000000000000
0!
#188500000000000
1!
1F
#189000000000000
0!
#189500000000000
1!
1/
00
01
0C
0F
#190000000000000
0!
#190500000000000
1!
02
05
09
0:
0=
0A
1F
#191000000000000
0!
#191500000000000
1!
0"
0+
0,
0-
0.
0/
0F
#192000000000000
0!
#192500000000000
1!
12
13
14
15
16
17
18
1:
1;
1<
1=
1>
1?
1@
1F
#193000000000000
0!
#193500000000000
1!
11
0F
#194000000000000
0!
#194500000000000
1!
19
1A
1F
#195000000000000
0!
#195500000000000
1!
0F
#196000000000000
0!
#196500000000000
1!
1F
#197000000000000
0!
#197500000000000
1!
1"
1#
1$
1%
1&
1'
1(
1)
1*
1+
1,
1-
1.
1/
10
0:
0;
0<
0=
0>
0A
0B
0F
#198000000000000
0!
#198500000000000
1!
02
1:
0?
0@
1F
#199000000000000
0!
#199500000000000
1!
0#
0$
0%
0&
0'
0(
0)
0*
00
12
03
04
05
06
07
08
09
1B
1C
0F
#200000000000000
0!
#200500000000000
1!
02
13
14
16
0:
1;
1<
1>
1F
#201000000000000
0!
#201500000000000
1!
10
01
0C
0F
#202000000000000
0!
#202500000000000
1!
06
0>
1F
#203000000000000
0!
#203500000000000
1!
0"
1)
1*
0,
0-
0/
11
03
04
0;
0<
0F
#204000000000000
0!
#204500000000000
1!
1F
#205000000000000
0!
#205500000000000
1!
1/
00
01
0F
#206000000000000
0!
#206500000000000
1!
12
13
14
15
1:
1;
1<
1=
1F
#207000000000000
0!
#207500000000000
1!
1"
0)
0*
1,
1-
10
16
17
18
19
1>
1?
1@
1A
1C
0F
#208000000000000
0!
#208500000000000
1!
02
05
06
07
08
09
0:
0=
0>
0?
0@
0A
1F
#209000000000000
0!
#209500000000000
1!
11
0C
0F
#210000000000000
0!
#210500000000000
1!
12
03
04
17
1:
0;
0<
1?
1F
#211000000000000
0!
#211500000000000
1!
0"
1)
1*
0,
0-
00
01
02
07
0:
0?
0F
#212000000000000
0!
#212500000000000
1!
12
13
14
15
1:
1;
1<
1=
1F
#213000000000000
0!
#213500000000000
1!
11
0F
#214000000000000
0!
#214500000000000
1!
02
03
04
19
0:
0;
0<
1A
1F
#215000000000000
0!
#215500000000000
1!
10
01
0F
#216000000000000
0!
#216500000000000
1!
12
05
09
1:
0=
0A
1F
#217000000000000
0!
#217500000000000
1!
1"
0)
0*
0+
1-
0.
0/
00
11
13
14
15
16
17
18
19
1;
1<
1=
1>
1?
1@
1A
0F
#218000000000000
0!
#218500000000000
1!
03
04
05
06
07
08
09
0;
0<
0=
0>
0?
0@
0A
1F
#219000000000000
0!
#219500000000000
1!
10
01
1C
0F
#220000000000000
0!
#220500000000000
1!
14
1<
1F
#221000000000000
0!
#221500000000000
1!
11
0C
0F
#222000000000000
0!
#222500000000000
1!
02
04
19
0:
0<
1A
1F
#223000000000000
0!
#223500000000000
1!
1/
00
01
1C
0F
#224000000000000
0!
#224500000000000
1!
14
09
1<
0A
1F
#225000000000000
0!
#225500000000000
1!
11
0C
0F
#226000000000000
0!
#226500000000000
1!
13
04
15
18
19
1;
0<
1=
1@
1A
1F
#227000000000000
0!
#227500000000000
1!
0"
1)
1*
1+
0-
1.
10
01
03
05
08
09
0;
0=
0@
0A
0F
#228000000000000
0!
#228500000000000
1!
12
1:
1F
#229000000000000
0!
#229500000000000
1!
0B
0F
#230000000000000
0!
#230500000000000
1!
1F
#231000000000000
0!
#231500000000000
1!
00
11
0F
#232000000000000
0!
#232500000000000
1!
02
15
17
18
1F
#233000000000000
0!
#233500000000000
1!
1"
0)
0*
0+
1-
0.
10
01
12
13
14
16
19
1;
1<
1=
1>
1?
1@
1A
1B
0F
#234000000000000
0!
#234500000000000
1!
03
04
05
06
07
08
09
0;
0<
0=
0>
0?
0@
0A
1F
#235000000000000
0!
#235500000000000
1!
1+
0/
11
1C
0F
#236000000000000
0!
#236500000000000
1!
14
15
19
1<
1=
1A
1F
#237000000000000
0!
#237500000000000
1!
1/
00
01
0C
0F
#238000000000000
0!
#238500000000000
1!
02
04
05
09
0:
0<
0=
0A
1F
#239000000000000
0!
#239500000000000
1!
0"
0+
0-
0/
0F
#240000000000000
0!
#240500000000000
1!
12
13
14
15
16
17
18
1:
1;
1<
1=
1>
1?
1@
1F
#241000000000000
0!
#241500000000000
1!
11
0F
#242000000000000
0!
#242500000000000
1!
19
1A
1F
#243000000000000
0!
#243500000000000
1!
1"
1#
1$
1%
1&
1'
1(
1)
1*
1+
1,
1-
1.
1/
10
02
03
04
05
06
09
0:
0;
0<
0=
0>
0A
0F
#244000000000000
0!
#244500000000000
1!
12
07
08
1:
0?
0@
1F
#245000000000000
0!
#245500000000000
1!
0#
0$
0%
0&
0'
0(
0)
0*
0,
0.
00
1C
0F
#246000000000000
0!
#246500000000000
1!
14
16
18
1<
1>
1@
1F
#247000000000000
0!
#247500000000000
1!
10
01
0C
0F
#248000000000000
0!
#248500000000000
1!
04
08
0<
0@
1F
#249000000000000
0!
#249500000000000
1!
1C
0F
#250000000000000
0!
#250500000000000
1!
1F
#251000000000000
0!
#251500000000000
1!
11
0C
0F
#252000000000000
0!
#252500000000000
1!
14
15
06
19
1<
1=
0>
1A
1F
#253000000000000
0!
#253500000000000
1!
1C
0F
#254000000000000
0!
#254500000000000
1!
1F
#255000000000000
0!
#255500000000000
1!
1.
0/
00
01
0C
0F
#256000000000000
0!
#256500000000000
1!
02
04
05
09
0:
0<
0=
0A
1F
#257000000000000
0!
#257500000000000
1!
0"
0+
0-
0.
0F
#258000000000000
0!
#258500000000000
1!
12
13
14
15
16
17
18
1:
1;
1<
1=
1>
1?
1@
1F
#259000000000000
0!
#259500000000000
1!
11
0F
#260000000000000
0!
#260500000000000
1!
19
1A
1F
#261000000000000
0!
#261500000000000
1!
1"
1#
1$
1%
1&
1'
1(
1)
1*
1+
1,
1-
1.
1/
10
01
02
03
04
05
06
09
0:
0;
0<
0=
0>
0A
0F
#262000000000000
0!
#262500000000000
1!
07
08
0?
0@
1F
#263000000000000
0!
#263500000000000
1!
0#
0$
0%
0&
0'
0(
0)
0*
0,
0/
00
11
1C
0F
#264000000000000
0!
#264500000000000
1!
13
14
1;
1<
1F
#265000000000000
0!
#265500000000000
1!
10
01
0C
0F
#266000000000000
0!
#266500000000000
1!
12
03
16
19
1:
0;
1>
1A
1F
#267000000000000
0!
#267500000000000
1!
0"
1)
1*
0-
1/
00
02
04
06
09
0:
0<
0>
0A
0F
#268000000000000
0!
#268500000000000
1!
12
13
14
15
1:
1;
1<
1=
1F
#269000000000000
0!
#269500000000000
1!
11
0F
#270000000000000
0!
#270500000000000
1!
02
03
04
17
18
0:
0;
0<
1?
1@
1F
#271000000000000
0!
#271500000000000
1!
10
01
0F
#272000000000000
0!
#272500000000000
1!
12
05
07
08
1:
0=
0?
0@
1F
#273000000000000
0!
#273500000000000
1!
1"
0)
0*
0+
1-
0.
13
14
15
16
17
18
19
1;
1<
1=
1>
1?
1@
1A
0F
#274000000000000
0!
#274500000000000
1!
03
04
05
06
07
08
09
0;
0<
0=
0>
0?
0@
0A
1F
#275000000000000
0!
#275500000000000
1!
11
1C
0F
#276000000000000
0!
#276500000000000
1!
02
14
0:
1<
1F
#277000000000000
0!
#277500000000000
1!
1.
0/
00
01
0C
0F
#278000000000000
0!
#278500000000000
1!
13
04
15
16
17
18
1;
0<
1=
1>
1?
1@
1F
#279000000000000
0!
#279500000000000
1!
0"
1)
1*
1+
0-
1/
10
03
05
06
07
08
0;
0=
0>
0?
0@
0F
#280000000000000
0!
#280500000000000
1!
12
1:
1F
#281000000000000
0!
#281500000000000
1!
0B
0F
#282000000000000
0!
#282500000000000
1!
1F
#283000000000000
0!
#283500000000000
1!
00
11
0F
#284000000000000
0!
#284500000000000
1!
02
15
16
19
1F
#285000000000000
0!
#285500000000000
1!
1"
0)
0*
0+
1-
0/
12
13
14
17
18
1;
1<
1=
1>
1?
1@
1A
1B
0F
#286000000000000
0!
#286500000000000
1!
03
04
05
06
07
08
09
0;
0<
0=
0>
0?
0@
0A
1F
#287000000000000
0!
#287500000000000
1!
1+
1/
10
01
1C
0F
#288000000000000
0!
#288500000000000
1!
02
13
16
0:
1;
1>
1F
#289000000000000
0!
#289500000000000
1!
11
0C
0F
#290000000000000
0!
#290500000000000
1!
12
03
14
06
17
19
1:
0;
1<
0>
1?
1A
1F
#291000000000000
0!
#291500000000000
1!
0"
1)
1*
0-
00
01
0:
0<
0?
0A
0B
0F
#292000000000000
0!
#292500000000000
1!
02
04
07
09
1:
1<
1?
1A
1F
#293000000000000
0!
#293500000000000
1!
1"
0)
0*
1-
10
11
12
13
14
15
16
17
18
19
1;
1=
1>
1@
1B
1C
0F
#294000000000000
0!
#294500000000000
1!
03
05
06
08
0;
0=
0>
0@
1F
#295000000000000
0!
#295500000000000
1!
1,
0-
0.
0/
00
01
0C
0F
#296000000000000
0!
#296500000000000
1!
02
04
07
09
0:
0<
0?
0A
1F
#297000000000000
0!
#297500000000000
1!
0"
0+
0,
0F
#298000000000000
0!
#298500000000000
1!
12
13
14
15
16
17
18
1:
1;
1<
1=
1>
1?
1@
1F
#299000000000000
0!
#299500000000000
1!
1"
1+
1,
11
02
03
05
06
07
08
0:
0;
0=
0>
0?
0@
1C
0F
#300000000000000
0!
#300500000000000
1!
15
16
1=
1>
1F
#301000000000000
0!
#301500000000000
1!
10
01
0C
0F
#302000000000000
0!
#302500000000000
1!
12
13
05
19
1:
1;
0=
1A
1F
#303000000000000
0!
#303500000000000
1!
1C
0F
#304000000000000
0!
#304500000000000
1!
1F
#305000000000000
0!
#305500000000000
1!
11
0C
0F
#306000000000000
0!
#306500000000000
1!
02
03
04
06
18
09
0:
0;
0<
0>
1@
0A
1F
#307000000000000
0!
#307500000000000
1!
1/
00
01
1C
0F
#308000000000000
0!
#308500000000000
1!
12
17
08
19
1:
1?
0@
1A
1F
#309000000000000
0!
#309500000000000
1!
11
0C
0F
#310000000000000
0!
#310500000000000
1!
02
07
09
0:
0?
0A
1F
#311000000000000
0!
#311500000000000
1!
0"
0+
0,
0/
01
0B
0F
#312000000000000
0!
#312500000000000
1!
12
13
14
15
16
17
1F
#313000000000000
0!
#313500000000000
1!
1"
1+
1,
1/
10
02
03
05
06
07
1<
1B
1C
0F
#314000000000000
0!
#314500000000000
1!
12
15
1:
1=
1F
#315000000000000
0!
#315500000000000
1!
11
0C
0F
#316000000000000
0!
#316500000000000
1!
02
04
05
18
0:
0<
0=
1@
1F
#317000000000000
0!
#317500000000000
1!
1.
0/
00
01
0F
#318000000000000
0!
#318500000000000
1!
12
13
17
1:
1;
1?
1F
#319000000000000
0!
#319500000000000
1!
10
1C
0F
#320000000000000
0!
#320500000000000
1!
03
14
07
08
0;
1<
0?
0@
1F
#321000000000000
0!
#321500000000000
1!
11
0C
0F
#322000000000000
0!
#322500000000000
1!
02
04
19
0:
0<
1A
1F
#323000000000000
0!
#323500000000000
1!
1/
00
01
1C
0F
#324000000000000
0!
#324500000000000
1!
12
16
18
09
1:
1>
1@
0A
1F
#325000000000000
0!
#325500000000000
1!
11
0C
0F
#326000000000000
0!
#326500000000000
1!
15
06
08
19
1=
0>
0@
1A
1F
#327000000000000
0!
#327500000000000
1!
1C
0F
#328000000000000
0!
#328500000000000
1!
1F
#329000000000000
0!
#329500000000000
1!
10
01
0C
0F
#330000000000000
0!
#330500000000000
1!
02
05
09
0:
0=
0A
1F
#331000000000000
0!
#331500000000000
1!
0"
0+
0,
0.
0/
00
0F
#332000000000000
0!
#332500000000000
1!
12
13
14
15
16
17
1:
1;
1<
1=
1>
1?
1F
#333000000000000
0!
#333500000000000
1!
11
0F
#334000000000000
0!
#334500000000000
1!
18
19
1@
1A
1F
#335000000000000
0!
#335500000000000
1!
0F
#336000000000000
0!
#336500000000000
1!
1F
#337000000000000
0!
#337500000000000
1!
1"
1#
1$
1%
1&
1'
1(
1)
1*
1+
1,
1-
1.
1/
0:
0;
0<
0=
0>
0A
0B
0F
#338000000000000
0!
#338500000000000
1!
03
04
05
06
07
08
09
1:
0?
0@
1F
#339000000000000
0!
#339500000000000
1!
0#
0$
0%
0&
0'
0(
0)
0*
0-
10
1B
1C
0F
#340000000000000
0!
#340500000000000
1!
02
13
14
16
0:
1;
1<
1>
1F
#341000000000000
0!
#341500000000000
1!
1-
0.
0/
00
01
0C
0F
#342000000000000
0!
#342500000000000
1!
12
03
04
1:
0;
0<
1F
#343000000000000
0!
#343500000000000
1!
0"
1)
1*
0,
0-
1.
10
11
02
06
0:
0>
0F
#344000000000000
0!
#344500000000000
1!
1F
#345000000000000
0!
#345500000000000
1!
1/
00
01
0F
#346000000000000
0!
#346500000000000
1!
1F
#347000000000000
0!
#347500000000000
1!
1"
0)
0*
1,
1-
0.
0/
12
13
14
15
16
17
18
19
1:
1;
1<
1=
1>
1?
1@
1A
1C
0F
#348000000000000
0!
#348500000000000
1!
03
04
05
07
08
09
0;
0<
0=
0?
0@
0A
1F
#349000000000000
0!
#349500000000000
1!
11
0C
0F
#350000000000000
0!
#350500000000000
1!
15
06
19
1=
0>
1A
1F
#351000000000000
0!
#351500000000000
1!
1C
0F
#352000000000000
0!
#352500000000000
1!
1F
#353000000000000
0!
#353500000000000
1!
10
01
0C
0F
#354000000000000
0!
#354500000000000
1!
02
05
09
0:
0=
0A
1F
#355000000000000
0!
#355500000000000
1!
0"
0+
0,
0-
00
0F
#356000000000000
0!
#356500000000000
1!
12
13
14
15
16
17
1:
1;
1<
1=
1>
1?
1F
#357000000000000
0!
#357500000000000
1!
11
0F
#358000000000000
0!
#358500000000000
1!
18
19
1@
1A
1F
#359000000000000
0!
#359500000000000
1!
0F
#360000000000000
0!
#360500000000000
1!
1F
#361000000000000
0!
#361500000000000
1!
1"
1#
1$
1%
1&
1'
1(
1)
1*
1+
1,
1-
1.
1/
01
0:
0;
0<
0=
0>
0A
0B
0F
#362000000000000
0!
#362500000000000
1!
02
03
04
05
06
07
08
09
0?
0@
1F
#363000000000000
0!
